/hadoop/data/lwilkins/April19_2.4.42_Production/user.mvanadia.ttbar_PH713_411168_TRUTH1_p3201.AT.2.4.42.NPTEV_TRUTH.Apr19.v17.1_output.root/user.mvanadia.17923745._000001.output.root
/hadoop/data/lwilkins/April19_2.4.42_Production/user.mvanadia.ttbar_PH713_411168_TRUTH1_p3201.AT.2.4.42.NPTEV_TRUTH.Apr19.v17.1_output.root/user.mvanadia.17923745._000002.output.root
/hadoop/data/lwilkins/April19_2.4.42_Production/user.mvanadia.ttbar_PH713_411168_TRUTH1_p3201.AT.2.4.42.NPTEV_TRUTH.Apr19.v17.1_output.root/user.mvanadia.17923745._000003.output.root
/hadoop/data/lwilkins/April19_2.4.42_Production/user.mvanadia.ttbar_PH713_411168_TRUTH1_p3201.AT.2.4.42.NPTEV_TRUTH.Apr19.v17.1_output.root/user.mvanadia.17923745._000004.output.root
/hadoop/data/lwilkins/April19_2.4.42_Production/user.mvanadia.ttbar_PH713_411168_TRUTH1_p3201.AT.2.4.42.NPTEV_TRUTH.Apr19.v17.1_output.root/user.mvanadia.17923745._000005.output.root
/hadoop/data/lwilkins/April19_2.4.42_Production/user.mvanadia.ttbar_PH713_411168_TRUTH1_p3201.AT.2.4.42.NPTEV_TRUTH.Apr19.v17.1_output.root/user.mvanadia.17923745._000006.output.root
/hadoop/data/lwilkins/April19_2.4.42_Production/user.mvanadia.ttbar_PH713_411168_TRUTH1_p3201.AT.2.4.42.NPTEV_TRUTH.Apr19.v17.1_output.root/user.mvanadia.17923745._000007.output.root
/hadoop/data/lwilkins/April19_2.4.42_Production/user.mvanadia.ttbar_PH713_411168_TRUTH1_p3201.AT.2.4.42.NPTEV_TRUTH.Apr19.v17.1_output.root/user.mvanadia.17923745._000008.output.root
/hadoop/data/lwilkins/April19_2.4.42_Production/user.mvanadia.ttbar_PH713_411168_TRUTH1_p3201.AT.2.4.42.NPTEV_TRUTH.Apr19.v17.1_output.root/user.mvanadia.17923745._000009.output.root
/hadoop/data/lwilkins/April19_2.4.42_Production/user.mvanadia.ttbar_PH713_411168_TRUTH1_p3201.AT.2.4.42.NPTEV_TRUTH.Apr19.v17.1_output.root/user.mvanadia.17923745._000010.output.root
/hadoop/data/lwilkins/April19_2.4.42_Production/user.mvanadia.ttbar_PH713_411168_TRUTH1_p3201.AT.2.4.42.NPTEV_TRUTH.Apr19.v17.1_output.root/user.mvanadia.17923745._000011.output.root
/hadoop/data/lwilkins/April19_2.4.42_Production/user.mvanadia.ttbar_PH713_411168_TRUTH1_p3201.AT.2.4.42.NPTEV_TRUTH.Apr19.v17.1_output.root/user.mvanadia.17923745._000012.output.root
/hadoop/data/lwilkins/April19_2.4.42_Production/user.mvanadia.ttbar_PH713_411168_TRUTH1_p3201.AT.2.4.42.NPTEV_TRUTH.Apr19.v17.1_output.root/user.mvanadia.17923745._000013.output.root
/hadoop/data/lwilkins/April19_2.4.42_Production/user.mvanadia.ttbar_PH713_411168_TRUTH1_p3201.AT.2.4.42.NPTEV_TRUTH.Apr19.v17.1_output.root/user.mvanadia.17923745._000014.output.root
/hadoop/data/lwilkins/April19_2.4.42_Production/user.mvanadia.ttbar_PH713_411168_TRUTH1_p3201.AT.2.4.42.NPTEV_TRUTH.Apr19.v17.1_output.root/user.mvanadia.17923745._000015.output.root
/hadoop/data/lwilkins/April19_2.4.42_Production/user.mvanadia.ttbar_PH713_411168_TRUTH1_p3201.AT.2.4.42.NPTEV_TRUTH.Apr19.v17.1_output.root/user.mvanadia.17923745._000016.output.root
/hadoop/data/lwilkins/April19_2.4.42_Production/user.mvanadia.ttbar_PH713_411168_TRUTH1_p3201.AT.2.4.42.NPTEV_TRUTH.Apr19.v17.1_output.root/user.mvanadia.17923745._000017.output.root
/hadoop/data/lwilkins/April19_2.4.42_Production/user.mvanadia.ttbar_PH713_411168_TRUTH1_p3201.AT.2.4.42.NPTEV_TRUTH.Apr19.v17.1_output.root/user.mvanadia.17923745._000018.output.root
/hadoop/data/lwilkins/April19_2.4.42_Production/user.mvanadia.ttbar_PH713_411168_TRUTH1_p3201.AT.2.4.42.NPTEV_TRUTH.Apr19.v17.1_output.root/user.mvanadia.17923745._000019.output.root
/hadoop/data/lwilkins/April19_2.4.42_Production/user.mvanadia.ttbar_PH713_411168_TRUTH1_p3201.AT.2.4.42.NPTEV_TRUTH.Apr19.v17.1_output.root/user.mvanadia.17923745._000020.output.root
/hadoop/data/lwilkins/April19_2.4.42_Production/user.mvanadia.ttbar_PH713_411168_TRUTH1_p3201.AT.2.4.42.NPTEV_TRUTH.Apr19.v17.1_output.root/user.mvanadia.17923745._000021.output.root
/hadoop/data/lwilkins/April19_2.4.42_Production/user.mvanadia.ttbar_PH713_411168_TRUTH1_p3201.AT.2.4.42.NPTEV_TRUTH.Apr19.v17.1_output.root/user.mvanadia.17923745._000022.output.root
/hadoop/data/lwilkins/April19_2.4.42_Production/user.mvanadia.ttbar_PH713_411168_TRUTH1_p3201.AT.2.4.42.NPTEV_TRUTH.Apr19.v17.1_output.root/user.mvanadia.17923745._000023.output.root
/hadoop/data/lwilkins/April19_2.4.42_Production/user.mvanadia.ttbar_PH713_411168_TRUTH1_p3201.AT.2.4.42.NPTEV_TRUTH.Apr19.v17.1_output.root/user.mvanadia.17923745._000024.output.root
/hadoop/data/lwilkins/April19_2.4.42_Production/user.mvanadia.ttbar_PH713_411168_TRUTH1_p3201.AT.2.4.42.NPTEV_TRUTH.Apr19.v17.1_output.root/user.mvanadia.17923745._000025.output.root
/hadoop/data/lwilkins/April19_2.4.42_Production/user.mvanadia.ttbar_PH713_411168_TRUTH1_p3201.AT.2.4.42.NPTEV_TRUTH.Apr19.v17.1_output.root/user.mvanadia.17923745._000026.output.root
/hadoop/data/lwilkins/April19_2.4.42_Production/user.mvanadia.ttbar_PH713_411168_TRUTH1_p3201.AT.2.4.42.NPTEV_TRUTH.Apr19.v17.1_output.root/user.mvanadia.17923745._000027.output.root
/hadoop/data/lwilkins/April19_2.4.42_Production/user.mvanadia.ttbar_PH713_411168_TRUTH1_p3201.AT.2.4.42.NPTEV_TRUTH.Apr19.v17.1_output.root/user.mvanadia.17923745._000028.output.root
/hadoop/data/lwilkins/April19_2.4.42_Production/user.mvanadia.ttbar_PH713_411168_TRUTH1_p3201.AT.2.4.42.NPTEV_TRUTH.Apr19.v17.1_output.root/user.mvanadia.17923745._000029.output.root
/hadoop/data/lwilkins/April19_2.4.42_Production/user.mvanadia.ttbar_PH713_411168_TRUTH1_p3201.AT.2.4.42.NPTEV_TRUTH.Apr19.v17.1_output.root/user.mvanadia.17923745._000030.output.root
/hadoop/data/lwilkins/April19_2.4.42_Production/user.mvanadia.ttbar_PH713_411168_TRUTH1_p3201.AT.2.4.42.NPTEV_TRUTH.Apr19.v17.1_output.root/user.mvanadia.17923745._000031.output.root
/hadoop/data/lwilkins/April19_2.4.42_Production/user.mvanadia.ttbar_PH713_411168_TRUTH1_p3201.AT.2.4.42.NPTEV_TRUTH.Apr19.v17.1_output.root/user.mvanadia.17923745._000032.output.root
/hadoop/data/lwilkins/April19_2.4.42_Production/user.mvanadia.ttbar_PH713_411168_TRUTH1_p3201.AT.2.4.42.NPTEV_TRUTH.Apr19.v17.1_output.root/user.mvanadia.17923745._000033.output.root
/hadoop/data/lwilkins/April19_2.4.42_Production/user.mvanadia.ttbar_PH713_411168_TRUTH1_p3201.AT.2.4.42.NPTEV_TRUTH.Apr19.v17.1_output.root/user.mvanadia.17923745._000034.output.root
/hadoop/data/lwilkins/April19_2.4.42_Production/user.mvanadia.ttbar_PH713_411168_TRUTH1_p3201.AT.2.4.42.NPTEV_TRUTH.Apr19.v17.1_output.root/user.mvanadia.17923745._000035.output.root
/hadoop/data/lwilkins/April19_2.4.42_Production/user.mvanadia.ttbar_PH713_411168_TRUTH1_p3201.AT.2.4.42.NPTEV_TRUTH.Apr19.v17.1_output.root/user.mvanadia.17923745._000036.output.root
/hadoop/data/lwilkins/April19_2.4.42_Production/user.mvanadia.ttbar_PH713_411168_TRUTH1_p3201.AT.2.4.42.NPTEV_TRUTH.Apr19.v17.1_output.root/user.mvanadia.17923745._000037.output.root
/hadoop/data/lwilkins/April19_2.4.42_Production/user.mvanadia.ttbar_PH713_411168_TRUTH1_p3201.AT.2.4.42.NPTEV_TRUTH.Apr19.v17.1_output.root/user.mvanadia.17923745._000038.output.root
/hadoop/data/lwilkins/April19_2.4.42_Production/user.mvanadia.ttbar_PH713_411168_TRUTH1_p3201.AT.2.4.42.NPTEV_TRUTH.Apr19.v17.1_output.root/user.mvanadia.17923745._000039.output.root
/hadoop/data/lwilkins/April19_2.4.42_Production/user.mvanadia.ttbar_PH713_411168_TRUTH1_p3201.AT.2.4.42.NPTEV_TRUTH.Apr19.v17.1_output.root/user.mvanadia.17923745._000040.output.root
/hadoop/data/lwilkins/April19_2.4.42_Production/user.mvanadia.ttbar_PH713_411168_TRUTH1_p3201.AT.2.4.42.NPTEV_TRUTH.Apr19.v17.1_output.root/user.mvanadia.17923745._000041.output.root
/hadoop/data/lwilkins/April19_2.4.42_Production/user.mvanadia.ttbar_PH713_411168_TRUTH1_p3201.AT.2.4.42.NPTEV_TRUTH.Apr19.v17.1_output.root/user.mvanadia.17923745._000042.output.root
/hadoop/data/lwilkins/April19_2.4.42_Production/user.mvanadia.ttbar_PH713_411168_TRUTH1_p3201.AT.2.4.42.NPTEV_TRUTH.Apr19.v17.1_output.root/user.mvanadia.17923745._000043.output.root
/hadoop/data/lwilkins/April19_2.4.42_Production/user.mvanadia.ttbar_PH713_411168_TRUTH1_p3201.AT.2.4.42.NPTEV_TRUTH.Apr19.v17.1_output.root/user.mvanadia.17923745._000044.output.root
/hadoop/data/lwilkins/April19_2.4.42_Production/user.mvanadia.ttbar_PH713_411168_TRUTH1_p3201.AT.2.4.42.NPTEV_TRUTH.Apr19.v17.1_output.root/user.mvanadia.17923745._000045.output.root
/hadoop/data/lwilkins/April19_2.4.42_Production/user.mvanadia.ttbar_PH713_411168_TRUTH1_p3201.AT.2.4.42.NPTEV_TRUTH.Apr19.v17.1_output.root/user.mvanadia.17923745._000046.output.root
/hadoop/data/lwilkins/April19_2.4.42_Production/user.mvanadia.ttbar_PH713_411168_TRUTH1_p3201.AT.2.4.42.NPTEV_TRUTH.Apr19.v17.1_output.root/user.mvanadia.17923745._000047.output.root
/hadoop/data/lwilkins/April19_2.4.42_Production/user.mvanadia.ttbar_PH713_411168_TRUTH1_p3201.AT.2.4.42.NPTEV_TRUTH.Apr19.v17.1_output.root/user.mvanadia.17923745._000049.output.root
/hadoop/data/lwilkins/April19_2.4.42_Production/user.mvanadia.ttbar_PH713_411168_TRUTH1_p3201.AT.2.4.42.NPTEV_TRUTH.Apr19.v17.1_output.root/user.mvanadia.17923745._000050.output.root
/hadoop/data/lwilkins/April19_2.4.42_Production/user.mvanadia.ttbar_PH713_411168_TRUTH1_p3201.AT.2.4.42.NPTEV_TRUTH.Apr19.v17.1_output.root/user.mvanadia.17923745._000051.output.root
/hadoop/data/lwilkins/April19_2.4.42_Production/user.mvanadia.ttbar_PH713_411168_TRUTH1_p3201.AT.2.4.42.NPTEV_TRUTH.Apr19.v17.1_output.root/user.mvanadia.17923745._000052.output.root
/hadoop/data/lwilkins/April19_2.4.42_Production/user.mvanadia.ttbar_PH713_411168_TRUTH1_p3201.AT.2.4.42.NPTEV_TRUTH.Apr19.v17.1_output.root/user.mvanadia.17923745._000053.output.root
/hadoop/data/lwilkins/April19_2.4.42_Production/user.mvanadia.ttbar_PH713_411168_TRUTH1_p3201.AT.2.4.42.NPTEV_TRUTH.Apr19.v17.1_output.root/user.mvanadia.17923745._000054.output.root
/hadoop/data/lwilkins/April19_2.4.42_Production/user.mvanadia.ttbar_PH713_411168_TRUTH1_p3201.AT.2.4.42.NPTEV_TRUTH.Apr19.v17.1_output.root/user.mvanadia.17923745._000055.output.root
/hadoop/data/lwilkins/April19_2.4.42_Production/user.mvanadia.ttbar_PH713_411168_TRUTH1_p3201.AT.2.4.42.NPTEV_TRUTH.Apr19.v17.1_output.root/user.mvanadia.17923745._000056.output.root
/hadoop/data/lwilkins/April19_2.4.42_Production/user.mvanadia.ttbar_PH713_411168_TRUTH1_p3201.AT.2.4.42.NPTEV_TRUTH.Apr19.v17.1_output.root/user.mvanadia.17923745._000057.output.root
/hadoop/data/lwilkins/April19_2.4.42_Production/user.mvanadia.ttbar_PH713_411168_TRUTH1_p3201.AT.2.4.42.NPTEV_TRUTH.Apr19.v17.1_output.root/user.mvanadia.17923745._000058.output.root
/hadoop/data/lwilkins/April19_2.4.42_Production/user.mvanadia.ttbar_PH713_411168_TRUTH1_p3201.AT.2.4.42.NPTEV_TRUTH.Apr19.v17.1_output.root/user.mvanadia.17923745._000059.output.root
/hadoop/data/lwilkins/April19_2.4.42_Production/user.mvanadia.ttbar_PH713_411168_TRUTH1_p3201.AT.2.4.42.NPTEV_TRUTH.Apr19.v17.1_output.root/user.mvanadia.17923745._000060.output.root
/hadoop/data/lwilkins/April19_2.4.42_Production/user.mvanadia.ttbar_PH713_411168_TRUTH1_p3201.AT.2.4.42.NPTEV_TRUTH.Apr19.v17.1_output.root/user.mvanadia.17923745._000061.output.root
/hadoop/data/lwilkins/April19_2.4.42_Production/user.mvanadia.ttbar_PH713_411168_TRUTH1_p3201.AT.2.4.42.NPTEV_TRUTH.Apr19.v17.1_output.root/user.mvanadia.17923745._000062.output.root
/hadoop/data/lwilkins/April19_2.4.42_Production/user.mvanadia.ttbar_PH713_411168_TRUTH1_p3201.AT.2.4.42.NPTEV_TRUTH.Apr19.v17.1_output.root/user.mvanadia.17923745._000063.output.root
/hadoop/data/lwilkins/April19_2.4.42_Production/user.mvanadia.ttbar_PH713_411168_TRUTH1_p3201.AT.2.4.42.NPTEV_TRUTH.Apr19.v17.1_output.root/user.mvanadia.17923745._000064.output.root
/hadoop/data/lwilkins/April19_2.4.42_Production/user.mvanadia.ttbar_PH713_411168_TRUTH1_p3201.AT.2.4.42.NPTEV_TRUTH.Apr19.v17.1_output.root/user.mvanadia.17923745._000065.output.root
/hadoop/data/lwilkins/April19_2.4.42_Production/user.mvanadia.ttbar_PH713_411168_TRUTH1_p3201.AT.2.4.42.NPTEV_TRUTH.Apr19.v17.1_output.root/user.mvanadia.17923745._000066.output.root
/hadoop/data/lwilkins/April19_2.4.42_Production/user.mvanadia.ttbar_PH713_411168_TRUTH1_p3201.AT.2.4.42.NPTEV_TRUTH.Apr19.v17.1_output.root/user.mvanadia.17923745._000067.output.root
/hadoop/data/lwilkins/April19_2.4.42_Production/user.mvanadia.ttbar_PH713_411168_TRUTH1_p3201.AT.2.4.42.NPTEV_TRUTH.Apr19.v17.1_output.root/user.mvanadia.17923745._000068.output.root
/hadoop/data/lwilkins/April19_2.4.42_Production/user.mvanadia.ttbar_PH713_411168_TRUTH1_p3201.AT.2.4.42.NPTEV_TRUTH.Apr19.v17.1_output.root/user.mvanadia.17923745._000069.output.root
/hadoop/data/lwilkins/April19_2.4.42_Production/user.mvanadia.ttbar_PH713_411168_TRUTH1_p3201.AT.2.4.42.NPTEV_TRUTH.Apr19.v17.1_output.root/user.mvanadia.17923745._000070.output.root
/hadoop/data/lwilkins/April19_2.4.42_Production/user.mvanadia.ttbar_PH713_411168_TRUTH1_p3201.AT.2.4.42.NPTEV_TRUTH.Apr19.v17.1_output.root/user.mvanadia.17923745._000071.output.root
/hadoop/data/lwilkins/April19_2.4.42_Production/user.mvanadia.ttbar_PH713_411168_TRUTH1_p3201.AT.2.4.42.NPTEV_TRUTH.Apr19.v17.1_output.root/user.mvanadia.17923745._000072.output.root
/hadoop/data/lwilkins/April19_2.4.42_Production/user.mvanadia.ttbar_PH713_411168_TRUTH1_p3201.AT.2.4.42.NPTEV_TRUTH.Apr19.v17.1_output.root/user.mvanadia.17923745._000073.output.root
/hadoop/data/lwilkins/April19_2.4.42_Production/user.mvanadia.ttbar_PH713_411168_TRUTH1_p3201.AT.2.4.42.NPTEV_TRUTH.Apr19.v17.1_output.root/user.mvanadia.17923745._000074.output.root
/hadoop/data/lwilkins/April19_2.4.42_Production/user.mvanadia.ttbar_PH713_411168_TRUTH1_p3201.AT.2.4.42.NPTEV_TRUTH.Apr19.v17.1_output.root/user.mvanadia.17923745._000075.output.root
/hadoop/data/lwilkins/April19_2.4.42_Production/user.mvanadia.ttbar_PH713_411168_TRUTH1_p3201.AT.2.4.42.NPTEV_TRUTH.Apr19.v17.1_output.root/user.mvanadia.17923745._000076.output.root
/hadoop/data/lwilkins/April19_2.4.42_Production/user.mvanadia.ttbar_PH713_411168_TRUTH1_p3201.AT.2.4.42.NPTEV_TRUTH.Apr19.v17.1_output.root/user.mvanadia.17923745._000077.output.root
/hadoop/data/lwilkins/April19_2.4.42_Production/user.mvanadia.ttbar_PH713_411168_TRUTH1_p3201.AT.2.4.42.NPTEV_TRUTH.Apr19.v17.1_output.root/user.mvanadia.17923745._000078.output.root
/hadoop/data/lwilkins/April19_2.4.42_Production/user.mvanadia.ttbar_PH713_411168_TRUTH1_p3201.AT.2.4.42.NPTEV_TRUTH.Apr19.v17.1_output.root/user.mvanadia.17923745._000079.output.root
/hadoop/data/lwilkins/April19_2.4.42_Production/user.mvanadia.ttbar_PH713_411168_TRUTH1_p3201.AT.2.4.42.NPTEV_TRUTH.Apr19.v17.1_output.root/user.mvanadia.17923745._000080.output.root
/hadoop/data/lwilkins/April19_2.4.42_Production/user.mvanadia.ttbar_PH713_411168_TRUTH1_p3201.AT.2.4.42.NPTEV_TRUTH.Apr19.v17.1_output.root/user.mvanadia.17923745._000081.output.root
/hadoop/data/lwilkins/April19_2.4.42_Production/user.mvanadia.ttbar_PH713_411168_TRUTH1_p3201.AT.2.4.42.NPTEV_TRUTH.Apr19.v17.1_output.root/user.mvanadia.17923745._000082.output.root
/hadoop/data/lwilkins/April19_2.4.42_Production/user.mvanadia.ttbar_PH713_411168_TRUTH1_p3201.AT.2.4.42.NPTEV_TRUTH.Apr19.v17.1_output.root/user.mvanadia.17923745._000083.output.root
/hadoop/data/lwilkins/April19_2.4.42_Production/user.mvanadia.ttbar_PH713_411168_TRUTH1_p3201.AT.2.4.42.NPTEV_TRUTH.Apr19.v17.1_output.root/user.mvanadia.17923745._000084.output.root
/hadoop/data/lwilkins/April19_2.4.42_Production/user.mvanadia.ttbar_PH713_411168_TRUTH1_p3201.AT.2.4.42.NPTEV_TRUTH.Apr19.v17.1_output.root/user.mvanadia.17923745._000085.output.root
/hadoop/data/lwilkins/April19_2.4.42_Production/user.mvanadia.ttbar_PH713_411168_TRUTH1_p3201.AT.2.4.42.NPTEV_TRUTH.Apr19.v17.1_output.root/user.mvanadia.17923745._000086.output.root
/hadoop/data/lwilkins/April19_2.4.42_Production/user.mvanadia.ttbar_PH713_411168_TRUTH1_p3201.AT.2.4.42.NPTEV_TRUTH.Apr19.v17.1_output.root/user.mvanadia.17923745._000087.output.root
/hadoop/data/lwilkins/April19_2.4.42_Production/user.mvanadia.ttbar_PH713_411168_TRUTH1_p3201.AT.2.4.42.NPTEV_TRUTH.Apr19.v17.1_output.root/user.mvanadia.17923745._000088.output.root
/hadoop/data/lwilkins/April19_2.4.42_Production/user.mvanadia.ttbar_PH713_411168_TRUTH1_p3201.AT.2.4.42.NPTEV_TRUTH.Apr19.v17.1_output.root/user.mvanadia.17923745._000089.output.root
/hadoop/data/lwilkins/April19_2.4.42_Production/user.mvanadia.ttbar_PH713_411168_TRUTH1_p3201.AT.2.4.42.NPTEV_TRUTH.Apr19.v17.1_output.root/user.mvanadia.17923745._000090.output.root
/hadoop/data/lwilkins/April19_2.4.42_Production/user.mvanadia.ttbar_PH713_411168_TRUTH1_p3201.AT.2.4.42.NPTEV_TRUTH.Apr19.v17.1_output.root/user.mvanadia.17923745._000091.output.root
/hadoop/data/lwilkins/April19_2.4.42_Production/user.mvanadia.ttbar_PH713_411168_TRUTH1_p3201.AT.2.4.42.NPTEV_TRUTH.Apr19.v17.1_output.root/user.mvanadia.17923745._000092.output.root
/hadoop/data/lwilkins/April19_2.4.42_Production/user.mvanadia.ttbar_PH713_411168_TRUTH1_p3201.AT.2.4.42.NPTEV_TRUTH.Apr19.v17.1_output.root/user.mvanadia.17923745._000093.output.root
/hadoop/data/lwilkins/April19_2.4.42_Production/user.mvanadia.ttbar_PH713_411168_TRUTH1_p3201.AT.2.4.42.NPTEV_TRUTH.Apr19.v17.1_output.root/user.mvanadia.17923745._000094.output.root
/hadoop/data/lwilkins/April19_2.4.42_Production/user.mvanadia.ttbar_PH713_411168_TRUTH1_p3201.AT.2.4.42.NPTEV_TRUTH.Apr19.v17.1_output.root/user.mvanadia.17923745._000095.output.root
/hadoop/data/lwilkins/April19_2.4.42_Production/user.mvanadia.ttbar_PH713_411168_TRUTH1_p3201.AT.2.4.42.NPTEV_TRUTH.Apr19.v17.1_output.root/user.mvanadia.17923745._000096.output.root
/hadoop/data/lwilkins/April19_2.4.42_Production/user.mvanadia.ttbar_PH713_411168_TRUTH1_p3201.AT.2.4.42.NPTEV_TRUTH.Apr19.v17.1_output.root/user.mvanadia.17923745._000097.output.root
/hadoop/data/lwilkins/April19_2.4.42_Production/user.mvanadia.ttbar_PH713_411168_TRUTH1_p3201.AT.2.4.42.NPTEV_TRUTH.Apr19.v17.1_output.root/user.mvanadia.17923745._000098.output.root
/hadoop/data/lwilkins/April19_2.4.42_Production/user.mvanadia.ttbar_PH713_411168_TRUTH1_p3201.AT.2.4.42.NPTEV_TRUTH.Apr19.v17.1_output.root/user.mvanadia.17923745._000099.output.root
/hadoop/data/lwilkins/April19_2.4.42_Production/user.mvanadia.ttbar_PH713_411168_TRUTH1_p3201.AT.2.4.42.NPTEV_TRUTH.Apr19.v17.1_output.root/user.mvanadia.17923745._000100.output.root
/hadoop/data/lwilkins/April19_2.4.42_Production/user.mvanadia.ttbar_PH713_411168_TRUTH1_p3201.AT.2.4.42.NPTEV_TRUTH.Apr19.v17.1_output.root/user.mvanadia.17923745._000101.output.root
/hadoop/data/lwilkins/April19_2.4.42_Production/user.mvanadia.ttbar_PH713_411168_TRUTH1_p3201.AT.2.4.42.NPTEV_TRUTH.Apr19.v17.1_output.root/user.mvanadia.17923745._000102.output.root
/hadoop/data/lwilkins/April19_2.4.42_Production/user.mvanadia.ttbar_PH713_411168_TRUTH1_p3201.AT.2.4.42.NPTEV_TRUTH.Apr19.v17.1_output.root/user.mvanadia.17923745._000103.output.root
/hadoop/data/lwilkins/April19_2.4.42_Production/user.mvanadia.ttbar_PH713_411168_TRUTH1_p3201.AT.2.4.42.NPTEV_TRUTH.Apr19.v17.1_output.root/user.mvanadia.17923745._000104.output.root
/hadoop/data/lwilkins/April19_2.4.42_Production/user.mvanadia.ttbar_PH713_411168_TRUTH1_p3201.AT.2.4.42.NPTEV_TRUTH.Apr19.v17.1_output.root/user.mvanadia.17923745._000105.output.root
/hadoop/data/lwilkins/April19_2.4.42_Production/user.mvanadia.ttbar_PH713_411168_TRUTH1_p3201.AT.2.4.42.NPTEV_TRUTH.Apr19.v17.1_output.root/user.mvanadia.17923745._000106.output.root
/hadoop/data/lwilkins/April19_2.4.42_Production/user.mvanadia.ttbar_PH713_411168_TRUTH1_p3201.AT.2.4.42.NPTEV_TRUTH.Apr19.v17.1_output.root/user.mvanadia.17923745._000107.output.root
/hadoop/data/lwilkins/April19_2.4.42_Production/user.mvanadia.ttbar_PH713_411168_TRUTH1_p3201.AT.2.4.42.NPTEV_TRUTH.Apr19.v17.1_output.root/user.mvanadia.17923745._000108.output.root
/hadoop/data/lwilkins/April19_2.4.42_Production/user.mvanadia.ttbar_PH713_411168_TRUTH1_p3201.AT.2.4.42.NPTEV_TRUTH.Apr19.v17.1_output.root/user.mvanadia.17923745._000109.output.root
/hadoop/data/lwilkins/April19_2.4.42_Production/user.mvanadia.ttbar_PH713_411168_TRUTH1_p3201.AT.2.4.42.NPTEV_TRUTH.Apr19.v17.1_output.root/user.mvanadia.17923745._000110.output.root
/hadoop/data/lwilkins/April19_2.4.42_Production/user.mvanadia.ttbar_PH713_411168_TRUTH1_p3201.AT.2.4.42.NPTEV_TRUTH.Apr19.v17.1_output.root/user.mvanadia.17923745._000111.output.root
/hadoop/data/lwilkins/April19_2.4.42_Production/user.mvanadia.ttbar_PH713_411168_TRUTH1_p3201.AT.2.4.42.NPTEV_TRUTH.Apr19.v17.1_output.root/user.mvanadia.17923745._000112.output.root
/hadoop/data/lwilkins/April19_2.4.42_Production/user.mvanadia.ttbar_PH713_411168_TRUTH1_p3201.AT.2.4.42.NPTEV_TRUTH.Apr19.v17.1_output.root/user.mvanadia.17923745._000113.output.root
/hadoop/data/lwilkins/April19_2.4.42_Production/user.mvanadia.ttbar_PH713_411168_TRUTH1_p3201.AT.2.4.42.NPTEV_TRUTH.Apr19.v17.1_output.root/user.mvanadia.17923745._000114.output.root
/hadoop/data/lwilkins/April19_2.4.42_Production/user.mvanadia.ttbar_PH713_411168_TRUTH1_p3201.AT.2.4.42.NPTEV_TRUTH.Apr19.v17.1_output.root/user.mvanadia.17923745._000115.output.root
/hadoop/data/lwilkins/April19_2.4.42_Production/user.mvanadia.ttbar_PH713_411168_TRUTH1_p3201.AT.2.4.42.NPTEV_TRUTH.Apr19.v17.1_output.root/user.mvanadia.17923745._000116.output.root
/hadoop/data/lwilkins/April19_2.4.42_Production/user.mvanadia.ttbar_PH713_411168_TRUTH1_p3201.AT.2.4.42.NPTEV_TRUTH.Apr19.v17.1_output.root/user.mvanadia.17923745._000117.output.root
/hadoop/data/lwilkins/April19_2.4.42_Production/user.mvanadia.ttbar_PH713_411168_TRUTH1_p3201.AT.2.4.42.NPTEV_TRUTH.Apr19.v17.1_output.root/user.mvanadia.17923745._000118.output.root
/hadoop/data/lwilkins/April19_2.4.42_Production/user.mvanadia.ttbar_PH713_411168_TRUTH1_p3201.AT.2.4.42.NPTEV_TRUTH.Apr19.v17.1_output.root/user.mvanadia.17923745._000119.output.root
/hadoop/data/lwilkins/April19_2.4.42_Production/user.mvanadia.ttbar_PH713_411168_TRUTH1_p3201.AT.2.4.42.NPTEV_TRUTH.Apr19.v17.1_output.root/user.mvanadia.17923745._000120.output.root
/hadoop/data/lwilkins/April19_2.4.42_Production/user.mvanadia.ttbar_PH713_411168_TRUTH1_p3201.AT.2.4.42.NPTEV_TRUTH.Apr19.v17.1_output.root/user.mvanadia.17923745._000121.output.root
/hadoop/data/lwilkins/April19_2.4.42_Production/user.mvanadia.ttbar_PH713_411168_TRUTH1_p3201.AT.2.4.42.NPTEV_TRUTH.Apr19.v17.1_output.root/user.mvanadia.17923745._000122.output.root
/hadoop/data/lwilkins/April19_2.4.42_Production/user.mvanadia.ttbar_PH713_411168_TRUTH1_p3201.AT.2.4.42.NPTEV_TRUTH.Apr19.v17.1_output.root/user.mvanadia.17923745._000123.output.root
/hadoop/data/lwilkins/April19_2.4.42_Production/user.mvanadia.ttbar_PH713_411168_TRUTH1_p3201.AT.2.4.42.NPTEV_TRUTH.Apr19.v17.1_output.root/user.mvanadia.17923745._000124.output.root
/hadoop/data/lwilkins/April19_2.4.42_Production/user.mvanadia.ttbar_PH713_411168_TRUTH1_p3201.AT.2.4.42.NPTEV_TRUTH.Apr19.v17.1_output.root/user.mvanadia.17923745._000125.output.root
/hadoop/data/lwilkins/April19_2.4.42_Production/user.mvanadia.ttbar_PH713_411168_TRUTH1_p3201.AT.2.4.42.NPTEV_TRUTH.Apr19.v17.1_output.root/user.mvanadia.17923745._000126.output.root
/hadoop/data/lwilkins/April19_2.4.42_Production/user.mvanadia.ttbar_PH713_411168_TRUTH1_p3201.AT.2.4.42.NPTEV_TRUTH.Apr19.v17.1_output.root/user.mvanadia.17923745._000127.output.root
/hadoop/data/lwilkins/April19_2.4.42_Production/user.mvanadia.ttbar_PH713_411168_TRUTH1_p3201.AT.2.4.42.NPTEV_TRUTH.Apr19.v17.1_output.root/user.mvanadia.17923745._000128.output.root
/hadoop/data/lwilkins/April19_2.4.42_Production/user.mvanadia.ttbar_PH713_411168_TRUTH1_p3201.AT.2.4.42.NPTEV_TRUTH.Apr19.v17.1_output.root/user.mvanadia.17923745._000129.output.root
/hadoop/data/lwilkins/April19_2.4.42_Production/user.mvanadia.ttbar_PH713_411168_TRUTH1_p3201.AT.2.4.42.NPTEV_TRUTH.Apr19.v17.1_output.root/user.mvanadia.17923745._000130.output.root
/hadoop/data/lwilkins/April19_2.4.42_Production/user.mvanadia.ttbar_PH713_411168_TRUTH1_p3201.AT.2.4.42.NPTEV_TRUTH.Apr19.v17.1_output.root/user.mvanadia.17923745._000131.output.root
/hadoop/data/lwilkins/April19_2.4.42_Production/user.mvanadia.ttbar_PH713_411168_TRUTH1_p3201.AT.2.4.42.NPTEV_TRUTH.Apr19.v17.1_output.root/user.mvanadia.17923745._000132.output.root
/hadoop/data/lwilkins/April19_2.4.42_Production/user.mvanadia.ttbar_PH713_411168_TRUTH1_p3201.AT.2.4.42.NPTEV_TRUTH.Apr19.v17.1_output.root/user.mvanadia.17923745._000133.output.root
/hadoop/data/lwilkins/April19_2.4.42_Production/user.mvanadia.ttbar_PH713_411168_TRUTH1_p3201.AT.2.4.42.NPTEV_TRUTH.Apr19.v17.1_output.root/user.mvanadia.17923745._000134.output.root
/hadoop/data/lwilkins/April19_2.4.42_Production/user.mvanadia.ttbar_PH713_411168_TRUTH1_p3201.AT.2.4.42.NPTEV_TRUTH.Apr19.v17.1_output.root/user.mvanadia.17923745._000135.output.root
/hadoop/data/lwilkins/April19_2.4.42_Production/user.mvanadia.ttbar_PH713_411168_TRUTH1_p3201.AT.2.4.42.NPTEV_TRUTH.Apr19.v17.1_output.root/user.mvanadia.17923745._000136.output.root
/hadoop/data/lwilkins/April19_2.4.42_Production/user.mvanadia.ttbar_PH713_411168_TRUTH1_p3201.AT.2.4.42.NPTEV_TRUTH.Apr19.v17.1_output.root/user.mvanadia.17923745._000137.output.root
/hadoop/data/lwilkins/April19_2.4.42_Production/user.mvanadia.ttbar_PH713_411168_TRUTH1_p3201.AT.2.4.42.NPTEV_TRUTH.Apr19.v17.1_output.root/user.mvanadia.17923745._000138.output.root
/hadoop/data/lwilkins/April19_2.4.42_Production/user.mvanadia.ttbar_PH713_411168_TRUTH1_p3201.AT.2.4.42.NPTEV_TRUTH.Apr19.v17.1_output.root/user.mvanadia.17923745._000139.output.root
/hadoop/data/lwilkins/April19_2.4.42_Production/user.mvanadia.ttbar_PH713_411168_TRUTH1_p3201.AT.2.4.42.NPTEV_TRUTH.Apr19.v17.1_output.root/user.mvanadia.17923745._000140.output.root
/hadoop/data/lwilkins/April19_2.4.42_Production/user.mvanadia.ttbar_PH713_411168_TRUTH1_p3201.AT.2.4.42.NPTEV_TRUTH.Apr19.v17.1_output.root/user.mvanadia.17923745._000141.output.root
/hadoop/data/lwilkins/April19_2.4.42_Production/user.mvanadia.ttbar_PH713_411168_TRUTH1_p3201.AT.2.4.42.NPTEV_TRUTH.Apr19.v17.1_output.root/user.mvanadia.17923745._000142.output.root
/hadoop/data/lwilkins/April19_2.4.42_Production/user.mvanadia.ttbar_PH713_411168_TRUTH1_p3201.AT.2.4.42.NPTEV_TRUTH.Apr19.v17.1_output.root/user.mvanadia.17923745._000143.output.root
/hadoop/data/lwilkins/April19_2.4.42_Production/user.mvanadia.ttbar_PH713_411168_TRUTH1_p3201.AT.2.4.42.NPTEV_TRUTH.Apr19.v17.1_output.root/user.mvanadia.17923745._000144.output.root
/hadoop/data/lwilkins/April19_2.4.42_Production/user.mvanadia.ttbar_PH713_411168_TRUTH1_p3201.AT.2.4.42.NPTEV_TRUTH.Apr19.v17.1_output.root/user.mvanadia.17923745._000145.output.root
/hadoop/data/lwilkins/April19_2.4.42_Production/user.mvanadia.ttbar_PH713_411168_TRUTH1_p3201.AT.2.4.42.NPTEV_TRUTH.Apr19.v17.1_output.root/user.mvanadia.17923745._000146.output.root
/hadoop/data/lwilkins/April19_2.4.42_Production/user.mvanadia.ttbar_PH713_411168_TRUTH1_p3201.AT.2.4.42.NPTEV_TRUTH.Apr19.v17.1_output.root/user.mvanadia.17923745._000147.output.root
/hadoop/data/lwilkins/April19_2.4.42_Production/user.mvanadia.ttbar_PH713_411168_TRUTH1_p3201.AT.2.4.42.NPTEV_TRUTH.Apr19.v17.1_output.root/user.mvanadia.17923745._000148.output.root
/hadoop/data/lwilkins/April19_2.4.42_Production/user.mvanadia.ttbar_PH713_411168_TRUTH1_p3201.AT.2.4.42.NPTEV_TRUTH.Apr19.v17.1_output.root/user.mvanadia.17923745._000149.output.root
